<?xml version="1.0" encoding="UTF-8"?>
<testsuite xmlns:xsi="http://www.w3.org/2001/XMLSchema-instance" xsi:noNamespaceSchemaLocation="https://maven.apache.org/surefire/maven-surefire-plugin/xsd/surefire-test-report.xsd" name="com.baml.eops.csw_eureka_server.security.CustomIpFilterTest" time="8.1" tests="3" errors="0" skipped="0" failures="0">
  <properties>
    <property name="awt.toolkit" value="sun.awt.X11.XToolkit"/>
    <property name="file.encoding.pkg" value="sun.io"/>
    <property name="java.specification.version" value="1.8"/>
    <property name="sun.cpu.isalist" value=""/>
    <property name="sun.jnu.encoding" value="UTF-8"/>
    <property name="java.class.path" value="/root/johnson-eureka/target/test-classes:/root/johnson-eureka/target/classes:/root/.m2/repository/org/springframework/cloud/spring-cloud-starter-netflix-eureka-server/2.1.0.M1/spring-cloud-starter-netflix-eureka-server-2.1.0.M1.jar:/root/.m2/repository/org/springframework/cloud/spring-cloud-starter/2.1.0.M1/spring-cloud-starter-2.1.0.M1.jar:/root/.m2/repository/org/springframework/cloud/spring-cloud-context/2.1.0.M1/spring-cloud-context-2.1.0.M1.jar:/root/.m2/repository/org/springframework/security/spring-security-crypto/5.2.0.M2/spring-security-crypto-5.2.0.M2.jar:/root/.m2/repository/org/springframework/cloud/spring-cloud-commons/2.1.0.M1/spring-cloud-commons-2.1.0.M1.jar:/root/.m2/repository/org/springframework/security/spring-security-rsa/1.0.7.RELEASE/spring-security-rsa-1.0.7.RELEASE.jar:/root/.m2/repository/org/bouncycastle/bcpkix-jdk15on/1.60/bcpkix-jdk15on-1.60.jar:/root/.m2/repository/org/bouncycastle/bcprov-jdk15on/1.60/bcprov-jdk15on-1.60.jar:/root/.m2/repository/org/springframework/cloud/spring-cloud-netflix-eureka-server/2.1.0.M1/spring-cloud-netflix-eureka-server-2.1.0.M1.jar:/root/.m2/repository/org/springframework/boot/spring-boot-starter-web/2.2.0.M2/spring-boot-starter-web-2.2.0.M2.jar:/root/.m2/repository/org/springframework/boot/spring-boot-starter-json/2.2.0.M2/spring-boot-starter-json-2.2.0.M2.jar:/root/.m2/repository/com/fasterxml/jackson/datatype/jackson-datatype-jdk8/2.9.8/jackson-datatype-jdk8-2.9.8.jar:/root/.m2/repository/com/fasterxml/jackson/module/jackson-module-parameter-names/2.9.8/jackson-module-parameter-names-2.9.8.jar:/root/.m2/repository/org/springframework/boot/spring-boot-starter-tomcat/2.2.0.M2/spring-boot-starter-tomcat-2.2.0.M2.jar:/root/.m2/repository/org/apache/tomcat/embed/tomcat-embed-core/9.0.17/tomcat-embed-core-9.0.17.jar:/root/.m2/repository/org/apache/tomcat/embed/tomcat-embed-el/9.0.17/tomcat-embed-el-9.0.17.jar:/root/.m2/repository/org/apache/tomcat/embed/tomcat-embed-websocket/9.0.17/tomcat-embed-websocket-9.0.17.jar:/root/.m2/repository/org/springframework/boot/spring-boot-starter-validation/2.2.0.M2/spring-boot-starter-validation-2.2.0.M2.jar:/root/.m2/repository/jakarta/validation/jakarta.validation-api/2.0.1/jakarta.validation-api-2.0.1.jar:/root/.m2/repository/org/hibernate/validator/hibernate-validator/6.0.16.Final/hibernate-validator-6.0.16.Final.jar:/root/.m2/repository/org/jboss/logging/jboss-logging/3.3.2.Final/jboss-logging-3.3.2.Final.jar:/root/.m2/repository/com/fasterxml/classmate/1.5.0/classmate-1.5.0.jar:/root/.m2/repository/org/springframework/spring-webmvc/5.2.0.M1/spring-webmvc-5.2.0.M1.jar:/root/.m2/repository/org/springframework/boot/spring-boot-starter-freemarker/2.2.0.M2/spring-boot-starter-freemarker-2.2.0.M2.jar:/root/.m2/repository/org/freemarker/freemarker/2.3.28/freemarker-2.3.28.jar:/root/.m2/repository/org/springframework/spring-context-support/5.2.0.M1/spring-context-support-5.2.0.M1.jar:/root/.m2/repository/org/springframework/cloud/spring-cloud-netflix-core/2.1.0.M1/spring-cloud-netflix-core-2.1.0.M1.jar:/root/.m2/repository/org/springframework/cloud/spring-cloud-netflix-eureka-client/2.1.0.M1/spring-cloud-netflix-eureka-client-2.1.0.M1.jar:/root/.m2/repository/com/netflix/eureka/eureka-client/1.9.3/eureka-client-1.9.3.jar:/root/.m2/repository/org/codehaus/jettison/jettison/1.3.7/jettison-1.3.7.jar:/root/.m2/repository/stax/stax-api/1.0.1/stax-api-1.0.1.jar:/root/.m2/repository/com/netflix/netflix-commons/netflix-eventbus/0.3.0/netflix-eventbus-0.3.0.jar:/root/.m2/repository/com/netflix/netflix-commons/netflix-infix/0.3.0/netflix-infix-0.3.0.jar:/root/.m2/repository/commons-jxpath/commons-jxpath/1.3/commons-jxpath-1.3.jar:/root/.m2/repository/joda-time/joda-time/2.10.1/joda-time-2.10.1.jar:/root/.m2/repository/org/antlr/antlr-runtime/3.4/antlr-runtime-3.4.jar:/root/.m2/repository/org/antlr/stringtemplate/3.2.1/stringtemplate-3.2.1.jar:/root/.m2/repository/antlr/antlr/2.7.7/antlr-2.7.7.jar:/root/.m2/repository/com/google/code/gson/gson/2.8.5/gson-2.8.5.jar:/root/.m2/repository/org/apache/commons/commons-math/2.2/commons-math-2.2.jar:/root/.m2/repository/javax/ws/rs/jsr311-api/1.1.1/jsr311-api-1.1.1.jar:/root/.m2/repository/com/netflix/servo/servo-core/0.12.21/servo-core-0.12.21.jar:/root/.m2/repository/com/sun/jersey/jersey-core/1.19.1/jersey-core-1.19.1.jar:/root/.m2/repository/com/sun/jersey/jersey-client/1.19.1/jersey-client-1.19.1.jar:/root/.m2/repository/com/sun/jersey/contribs/jersey-apache-client4/1.19.1/jersey-apache-client4-1.19.1.jar:/root/.m2/repository/org/apache/httpcomponents/httpclient/4.5.8/httpclient-4.5.8.jar:/root/.m2/repository/org/apache/httpcomponents/httpcore/4.4.11/httpcore-4.4.11.jar:/root/.m2/repository/commons-codec/commons-codec/1.12/commons-codec-1.12.jar:/root/.m2/repository/com/google/inject/guice/4.1.0/guice-4.1.0.jar:/root/.m2/repository/com/github/vlsi/compactmap/compactmap/1.2.1/compactmap-1.2.1.jar:/root/.m2/repository/com/github/andrewoma/dexx/dexx-collections/0.2/dexx-collections-0.2.jar:/root/.m2/repository/com/fasterxml/jackson/core/jackson-annotations/2.9.0/jackson-annotations-2.9.0.jar:/root/.m2/repository/com/fasterxml/jackson/core/jackson-core/2.9.8/jackson-core-2.9.8.jar:/root/.m2/repository/com/sun/jersey/jersey-servlet/1.19.1/jersey-servlet-1.19.1.jar:/root/.m2/repository/com/sun/jersey/jersey-server/1.19.1/jersey-server-1.19.1.jar:/root/.m2/repository/com/netflix/eureka/eureka-core/1.9.3/eureka-core-1.9.3.jar:/root/.m2/repository/org/codehaus/woodstox/woodstox-core-asl/4.4.1/woodstox-core-asl-4.4.1.jar:/root/.m2/repository/javax/xml/stream/stax-api/1.0-2/stax-api-1.0-2.jar:/root/.m2/repository/com/netflix/archaius/archaius-core/0.7.6/archaius-core-0.7.6.jar:/root/.m2/repository/com/google/code/findbugs/jsr305/3.0.1/jsr305-3.0.1.jar:/root/.m2/repository/com/google/guava/guava/16.0/guava-16.0.jar:/root/.m2/repository/javax/inject/javax.inject/1/javax.inject-1.jar:/root/.m2/repository/com/fasterxml/jackson/dataformat/jackson-dataformat-xml/2.9.8/jackson-dataformat-xml-2.9.8.jar:/root/.m2/repository/com/fasterxml/jackson/module/jackson-module-jaxb-annotations/2.9.8/jackson-module-jaxb-annotations-2.9.8.jar:/root/.m2/repository/org/codehaus/woodstox/stax2-api/3.1.4/stax2-api-3.1.4.jar:/root/.m2/repository/com/fasterxml/woodstox/woodstox-core/5.0.3/woodstox-core-5.0.3.jar:/root/.m2/repository/com/thoughtworks/xstream/xstream/1.4.10/xstream-1.4.10.jar:/root/.m2/repository/xmlpull/xmlpull/1.1.3.1/xmlpull-1.1.3.1.jar:/root/.m2/repository/xpp3/xpp3_min/1.1.4c/xpp3_min-1.1.4c.jar:/root/.m2/repository/org/springframework/cloud/spring-cloud-starter-netflix-archaius/2.1.0.M1/spring-cloud-starter-netflix-archaius-2.1.0.M1.jar:/root/.m2/repository/org/springframework/cloud/spring-cloud-netflix-ribbon/2.1.0.M1/spring-cloud-netflix-ribbon-2.1.0.M1.jar:/root/.m2/repository/org/springframework/cloud/spring-cloud-netflix-archaius/2.1.0.M1/spring-cloud-netflix-archaius-2.1.0.M1.jar:/root/.m2/repository/commons-configuration/commons-configuration/1.8/commons-configuration-1.8.jar:/root/.m2/repository/commons-lang/commons-lang/2.6/commons-lang-2.6.jar:/root/.m2/repository/org/springframework/cloud/spring-cloud-starter-netflix-ribbon/2.1.0.M1/spring-cloud-starter-netflix-ribbon-2.1.0.M1.jar:/root/.m2/repository/com/netflix/ribbon/ribbon/2.2.5/ribbon-2.2.5.jar:/root/.m2/repository/com/netflix/ribbon/ribbon-transport/2.2.5/ribbon-transport-2.2.5.jar:/root/.m2/repository/io/reactivex/rxnetty-contexts/0.4.9/rxnetty-contexts-0.4.9.jar:/root/.m2/repository/io/reactivex/rxnetty-servo/0.4.9/rxnetty-servo-0.4.9.jar:/root/.m2/repository/com/netflix/hystrix/hystrix-core/1.5.12/hystrix-core-1.5.12.jar:/root/.m2/repository/io/reactivex/rxnetty/0.4.9/rxnetty-0.4.9.jar:/root/.m2/repository/io/netty/netty-codec-http/4.1.34.Final/netty-codec-http-4.1.34.Final.jar:/root/.m2/repository/io/netty/netty-common/4.1.34.Final/netty-common-4.1.34.Final.jar:/root/.m2/repository/io/netty/netty-buffer/4.1.34.Final/netty-buffer-4.1.34.Final.jar:/root/.m2/repository/io/netty/netty-transport/4.1.34.Final/netty-transport-4.1.34.Final.jar:/root/.m2/repository/io/netty/netty-resolver/4.1.34.Final/netty-resolver-4.1.34.Final.jar:/root/.m2/repository/io/netty/netty-codec/4.1.34.Final/netty-codec-4.1.34.Final.jar:/root/.m2/repository/io/netty/netty-handler/4.1.34.Final/netty-handler-4.1.34.Final.jar:/root/.m2/repository/io/netty/netty-transport-native-epoll/4.1.34.Final/netty-transport-native-epoll-4.1.34.Final.jar:/root/.m2/repository/io/netty/netty-transport-native-unix-common/4.1.34.Final/netty-transport-native-unix-common-4.1.34.Final.jar:/root/.m2/repository/com/netflix/ribbon/ribbon-core/2.2.5/ribbon-core-2.2.5.jar:/root/.m2/repository/com/netflix/ribbon/ribbon-httpclient/2.2.5/ribbon-httpclient-2.2.5.jar:/root/.m2/repository/commons-collections/commons-collections/3.2.2/commons-collections-3.2.2.jar:/root/.m2/repository/com/netflix/netflix-commons/netflix-commons-util/0.3.0/netflix-commons-util-0.3.0.jar:/root/.m2/repository/com/netflix/ribbon/ribbon-loadbalancer/2.2.5/ribbon-loadbalancer-2.2.5.jar:/root/.m2/repository/com/netflix/netflix-commons/netflix-statistics/0.1.1/netflix-statistics-0.1.1.jar:/root/.m2/repository/io/reactivex/rxjava/1.3.8/rxjava-1.3.8.jar:/root/.m2/repository/com/netflix/ribbon/ribbon-eureka/2.2.5/ribbon-eureka-2.2.5.jar:/root/.m2/repository/org/slf4j/slf4j-api/1.7.26/slf4j-api-1.7.26.jar:/root/.m2/repository/org/springframework/boot/spring-boot-starter-test/2.2.0.M2/spring-boot-starter-test-2.2.0.M2.jar:/root/.m2/repository/org/springframework/boot/spring-boot-starter/2.2.0.M2/spring-boot-starter-2.2.0.M2.jar:/root/.m2/repository/org/springframework/boot/spring-boot/2.2.0.M2/spring-boot-2.2.0.M2.jar:/root/.m2/repository/org/springframework/boot/spring-boot-autoconfigure/2.2.0.M2/spring-boot-autoconfigure-2.2.0.M2.jar:/root/.m2/repository/org/springframework/boot/spring-boot-starter-logging/2.2.0.M2/spring-boot-starter-logging-2.2.0.M2.jar:/root/.m2/repository/ch/qos/logback/logback-classic/1.2.3/logback-classic-1.2.3.jar:/root/.m2/repository/ch/qos/logback/logback-core/1.2.3/logback-core-1.2.3.jar:/root/.m2/repository/org/apache/logging/log4j/log4j-to-slf4j/2.11.2/log4j-to-slf4j-2.11.2.jar:/root/.m2/repository/org/apache/logging/log4j/log4j-api/2.11.2/log4j-api-2.11.2.jar:/root/.m2/repository/org/slf4j/jul-to-slf4j/1.7.26/jul-to-slf4j-1.7.26.jar:/root/.m2/repository/jakarta/annotation/jakarta.annotation-api/1.3.4/jakarta.annotation-api-1.3.4.jar:/root/.m2/repository/org/yaml/snakeyaml/1.24/snakeyaml-1.24.jar:/root/.m2/repository/org/springframework/boot/spring-boot-test/2.2.0.M2/spring-boot-test-2.2.0.M2.jar:/root/.m2/repository/org/springframework/boot/spring-boot-test-autoconfigure/2.2.0.M2/spring-boot-test-autoconfigure-2.2.0.M2.jar:/root/.m2/repository/com/jayway/jsonpath/json-path/2.4.0/json-path-2.4.0.jar:/root/.m2/repository/net/minidev/json-smart/2.3/json-smart-2.3.jar:/root/.m2/repository/net/minidev/accessors-smart/1.2/accessors-smart-1.2.jar:/root/.m2/repository/org/ow2/asm/asm/5.0.4/asm-5.0.4.jar:/root/.m2/repository/jakarta/xml/bind/jakarta.xml.bind-api/2.3.2/jakarta.xml.bind-api-2.3.2.jar:/root/.m2/repository/jakarta/activation/jakarta.activation-api/1.2.1/jakarta.activation-api-1.2.1.jar:/root/.m2/repository/org/assertj/assertj-core/3.12.2/assertj-core-3.12.2.jar:/root/.m2/repository/org/hamcrest/hamcrest-core/1.3/hamcrest-core-1.3.jar:/root/.m2/repository/org/hamcrest/hamcrest-library/1.3/hamcrest-library-1.3.jar:/root/.m2/repository/org/skyscreamer/jsonassert/1.5.0/jsonassert-1.5.0.jar:/root/.m2/repository/com/vaadin/external/google/android-json/0.0.20131108.vaadin1/android-json-0.0.20131108.vaadin1.jar:/root/.m2/repository/org/springframework/spring-core/5.2.0.M1/spring-core-5.2.0.M1.jar:/root/.m2/repository/org/springframework/spring-jcl/5.2.0.M1/spring-jcl-5.2.0.M1.jar:/root/.m2/repository/org/springframework/spring-test/5.2.0.M1/spring-test-5.2.0.M1.jar:/root/.m2/repository/org/xmlunit/xmlunit-core/2.6.2/xmlunit-core-2.6.2.jar:/root/.m2/repository/org/springframework/boot/spring-boot-starter-actuator/2.2.0.M2/spring-boot-starter-actuator-2.2.0.M2.jar:/root/.m2/repository/org/springframework/boot/spring-boot-actuator-autoconfigure/2.2.0.M2/spring-boot-actuator-autoconfigure-2.2.0.M2.jar:/root/.m2/repository/org/springframework/boot/spring-boot-actuator/2.2.0.M2/spring-boot-actuator-2.2.0.M2.jar:/root/.m2/repository/com/fasterxml/jackson/core/jackson-databind/2.9.8/jackson-databind-2.9.8.jar:/root/.m2/repository/org/springframework/spring-context/5.2.0.M1/spring-context-5.2.0.M1.jar:/root/.m2/repository/com/fasterxml/jackson/datatype/jackson-datatype-jsr310/2.9.8/jackson-datatype-jsr310-2.9.8.jar:/root/.m2/repository/io/micrometer/micrometer-core/1.1.4/micrometer-core-1.1.4.jar:/root/.m2/repository/org/hdrhistogram/HdrHistogram/2.1.9/HdrHistogram-2.1.9.jar:/root/.m2/repository/org/latencyutils/LatencyUtils/2.0.3/LatencyUtils-2.0.3.jar:/root/.m2/repository/org/springframework/cloud/spring-cloud-starter-zipkin/2.1.0.M1/spring-cloud-starter-zipkin-2.1.0.M1.jar:/root/.m2/repository/org/springframework/cloud/spring-cloud-sleuth-zipkin/2.1.0.M1/spring-cloud-sleuth-zipkin-2.1.0.M1.jar:/root/.m2/repository/org/springframework/spring-web/5.2.0.M1/spring-web-5.2.0.M1.jar:/root/.m2/repository/io/zipkin/zipkin2/zipkin/2.11.5/zipkin-2.11.5.jar:/root/.m2/repository/io/zipkin/reporter2/zipkin-reporter/2.7.8/zipkin-reporter-2.7.8.jar:/root/.m2/repository/io/zipkin/reporter2/zipkin-sender-kafka11/2.7.8/zipkin-sender-kafka11-2.7.8.jar:/root/.m2/repository/io/zipkin/reporter2/zipkin-sender-amqp-client/2.7.8/zipkin-sender-amqp-client-2.7.8.jar:/root/.m2/repository/org/springframework/cloud/spring-cloud-starter-sleuth/2.1.0.M1/spring-cloud-starter-sleuth-2.1.0.M1.jar:/root/.m2/repository/org/springframework/boot/spring-boot-starter-aop/2.2.0.M2/spring-boot-starter-aop-2.2.0.M2.jar:/root/.m2/repository/org/aspectj/aspectjweaver/1.9.3/aspectjweaver-1.9.3.jar:/root/.m2/repository/org/springframework/cloud/spring-cloud-sleuth-core/2.1.0.M1/spring-cloud-sleuth-core-2.1.0.M1.jar:/root/.m2/repository/org/aspectj/aspectjrt/1.9.3/aspectjrt-1.9.3.jar:/root/.m2/repository/io/zipkin/brave/brave-instrumentation-spring-web/5.3.3/brave-instrumentation-spring-web-5.3.3.jar:/root/.m2/repository/io/zipkin/brave/brave-instrumentation-http/5.3.3/brave-instrumentation-http-5.3.3.jar:/root/.m2/repository/io/zipkin/brave/brave-instrumentation-spring-rabbit/5.3.3/brave-instrumentation-spring-rabbit-5.3.3.jar:/root/.m2/repository/io/zipkin/brave/brave-instrumentation-kafka-clients/5.3.3/brave-instrumentation-kafka-clients-5.3.3.jar:/root/.m2/repository/io/zipkin/brave/brave-instrumentation-httpclient/5.3.3/brave-instrumentation-httpclient-5.3.3.jar:/root/.m2/repository/io/zipkin/brave/brave-instrumentation-httpasyncclient/5.3.3/brave-instrumentation-httpasyncclient-5.3.3.jar:/root/.m2/repository/io/zipkin/brave/brave-instrumentation-spring-webmvc/5.3.3/brave-instrumentation-spring-webmvc-5.3.3.jar:/root/.m2/repository/io/zipkin/brave/brave-instrumentation-servlet/5.3.3/brave-instrumentation-servlet-5.3.3.jar:/root/.m2/repository/io/zipkin/brave/brave-instrumentation-jms/5.3.3/brave-instrumentation-jms-5.3.3.jar:/root/.m2/repository/io/zipkin/brave/brave-context-log4j2/5.6.5/brave-context-log4j2-5.6.5.jar:/root/.m2/repository/io/zipkin/brave/brave/5.6.5/brave-5.6.5.jar:/root/.m2/repository/org/springframework/boot/spring-boot-starter-security/2.2.0.M2/spring-boot-starter-security-2.2.0.M2.jar:/root/.m2/repository/org/springframework/spring-aop/5.2.0.M1/spring-aop-5.2.0.M1.jar:/root/.m2/repository/org/springframework/spring-beans/5.2.0.M1/spring-beans-5.2.0.M1.jar:/root/.m2/repository/org/springframework/security/spring-security-config/5.2.0.M2/spring-security-config-5.2.0.M2.jar:/root/.m2/repository/org/springframework/security/spring-security-core/5.2.0.M2/spring-security-core-5.2.0.M2.jar:/root/.m2/repository/org/springframework/security/spring-security-web/5.2.0.M2/spring-security-web-5.2.0.M2.jar:/root/.m2/repository/org/springframework/spring-expression/5.2.0.M1/spring-expression-5.2.0.M1.jar:/root/.m2/repository/junit/junit/4.12/junit-4.12.jar:/root/.m2/repository/org/mockito/mockito-all/1.10.19/mockito-all-1.10.19.jar:/root/.m2/repository/org/mockito/mockito-core/2.25.1/mockito-core-2.25.1.jar:/root/.m2/repository/net/bytebuddy/byte-buddy/1.9.12/byte-buddy-1.9.12.jar:/root/.m2/repository/net/bytebuddy/byte-buddy-agent/1.9.12/byte-buddy-agent-1.9.12.jar:/root/.m2/repository/org/objenesis/objenesis/2.6/objenesis-2.6.jar:/root/.m2/repository/org/powermock/powermock-module-junit4/1.7.4/powermock-module-junit4-1.7.4.jar:/root/.m2/repository/org/powermock/powermock-module-junit4-common/1.7.4/powermock-module-junit4-common-1.7.4.jar:/root/.m2/repository/org/powermock/powermock-reflect/1.7.4/powermock-reflect-1.7.4.jar:/root/.m2/repository/org/powermock/powermock-core/1.7.4/powermock-core-1.7.4.jar:/root/.m2/repository/org/javassist/javassist/3.21.0-GA/javassist-3.21.0-GA.jar:/root/.m2/repository/org/powermock/powermock-api-mockito/1.7.4/powermock-api-mockito-1.7.4.jar:/root/.m2/repository/org/powermock/powermock-api-mockito-common/1.7.4/powermock-api-mockito-common-1.7.4.jar:/root/.m2/repository/org/powermock/powermock-api-support/1.7.4/powermock-api-support-1.7.4.jar:/root/.m2/repository/org/springframework/boot/spring-boot-maven-plugin/2.2.0.M2/spring-boot-maven-plugin-2.2.0.M2.jar:/root/.m2/repository/org/springframework/boot/spring-boot-loader-tools/2.2.0.M2/spring-boot-loader-tools-2.2.0.M2.jar:/root/.m2/repository/org/apache/commons/commons-compress/1.18/commons-compress-1.18.jar:/root/.m2/repository/org/apache/maven/maven-archiver/3.2.0/maven-archiver-3.2.0.jar:/root/.m2/repository/org/apache/maven/shared/maven-shared-utils/3.2.0/maven-shared-utils-3.2.0.jar:/root/.m2/repository/commons-io/commons-io/2.5/commons-io-2.5.jar:/root/.m2/repository/org/codehaus/plexus/plexus-interpolation/1.22/plexus-interpolation-1.22.jar:/root/.m2/repository/org/apache/maven/maven-artifact/3.3.9/maven-artifact-3.3.9.jar:/root/.m2/repository/org/apache/commons/commons-lang3/3.8.1/commons-lang3-3.8.1.jar:/root/.m2/repository/org/apache/maven/maven-core/3.3.9/maven-core-3.3.9.jar:/root/.m2/repository/org/apache/maven/maven-settings-builder/3.2.1/maven-settings-builder-3.2.1.jar:/root/.m2/repository/org/apache/maven/maven-repository-metadata/3.3.9/maven-repository-metadata-3.3.9.jar:/root/.m2/repository/org/apache/maven/maven-model-builder/3.3.9/maven-model-builder-3.3.9.jar:/root/.m2/repository/org/apache/maven/maven-builder-support/3.3.9/maven-builder-support-3.3.9.jar:/root/.m2/repository/org/apache/maven/maven-aether-provider/3.2.1/maven-aether-provider-3.2.1.jar:/root/.m2/repository/org/eclipse/aether/aether-spi/0.9.0.M2/aether-spi-0.9.0.M2.jar:/root/.m2/repository/org/eclipse/aether/aether-impl/1.0.2.v20150114/aether-impl-1.0.2.v20150114.jar:/root/.m2/repository/org/eclipse/aether/aether-api/1.0.2.v20150114/aether-api-1.0.2.v20150114.jar:/root/.m2/repository/org/eclipse/aether/aether-util/1.0.2.v20150114/aether-util-1.0.2.v20150114.jar:/root/.m2/repository/org/eclipse/sisu/org.eclipse.sisu.plexus/0.3.2/org.eclipse.sisu.plexus-0.3.2.jar:/root/.m2/repository/org/eclipse/sisu/org.eclipse.sisu.inject/0.3.2/org.eclipse.sisu.inject-0.3.2.jar:/root/.m2/repository/com/google/inject/guice/4.0/guice-4.0-no_aop.jar:/root/.m2/repository/aopalliance/aopalliance/1.0/aopalliance-1.0.jar:/root/.m2/repository/org/codehaus/plexus/plexus-classworlds/2.5.2/plexus-classworlds-2.5.2.jar:/root/.m2/repository/org/codehaus/plexus/plexus-component-annotations/1.6/plexus-component-annotations-1.6.jar:/root/.m2/repository/org/sonatype/plexus/plexus-sec-dispatcher/1.3/plexus-sec-dispatcher-1.3.jar:/root/.m2/repository/org/sonatype/plexus/plexus-cipher/1.4/plexus-cipher-1.4.jar:/root/.m2/repository/org/apache/maven/maven-model/3.3.9/maven-model-3.3.9.jar:/root/.m2/repository/org/apache/maven/maven-plugin-api/3.3.9/maven-plugin-api-3.3.9.jar:/root/.m2/repository/org/apache/maven/maven-settings/3.3.9/maven-settings-3.3.9.jar:/root/.m2/repository/org/apache/maven/shared/maven-common-artifact-filters/3.0.1/maven-common-artifact-filters-3.0.1.jar:/root/.m2/repository/org/sonatype/sisu/sisu-inject-plexus/1.4.2/sisu-inject-plexus-1.4.2.jar:/root/.m2/repository/org/sonatype/sisu/sisu-inject-bean/1.4.2/sisu-inject-bean-1.4.2.jar:/root/.m2/repository/org/sonatype/sisu/sisu-guice/2.1.7/sisu-guice-2.1.7-noaop.jar:/root/.m2/repository/org/codehaus/plexus/plexus-archiver/3.6.0/plexus-archiver-3.6.0.jar:/root/.m2/repository/org/codehaus/plexus/plexus-io/3.0.1/plexus-io-3.0.1.jar:/root/.m2/repository/org/iq80/snappy/snappy/0.4/snappy-0.4.jar:/root/.m2/repository/org/tukaani/xz/1.8/xz-1.8.jar:/root/.m2/repository/org/codehaus/plexus/plexus-utils/3.1.0/plexus-utils-3.1.0.jar:/root/.m2/repository/org/sonatype/plexus/plexus-build-api/0.0.7/plexus-build-api-0.0.7.jar:"/>
    <property name="java.vm.vendor" value="Oracle Corporation"/>
    <property name="sun.arch.data.model" value="64"/>
    <property name="java.vendor.url" value="http://java.oracle.com/"/>
    <property name="user.timezone" value=""/>
    <property name="java.vm.specification.version" value="1.8"/>
    <property name="os.name" value="Linux"/>
    <property name="user.country" value="US"/>
    <property name="sun.java.launcher" value="SUN_STANDARD"/>
    <property name="sun.boot.library.path" value="/usr/lib/jvm/java-1.8.0-openjdk-1.8.0.201.b09-2.el8.x86_64/jre/lib/amd64"/>
    <property name="sun.java.command" value="/root/johnson-eureka/target/surefire/surefirebooter6212630920149783778.jar /root/johnson-eureka/target/surefire 2020-11-27T22-52-55_213-jvmRun1 surefire4397154607583765308tmp surefire_06814223809574883855tmp"/>
    <property name="surefire.test.class.path" value="/root/johnson-eureka/target/test-classes:/root/johnson-eureka/target/classes:/root/.m2/repository/org/springframework/cloud/spring-cloud-starter-netflix-eureka-server/2.1.0.M1/spring-cloud-starter-netflix-eureka-server-2.1.0.M1.jar:/root/.m2/repository/org/springframework/cloud/spring-cloud-starter/2.1.0.M1/spring-cloud-starter-2.1.0.M1.jar:/root/.m2/repository/org/springframework/cloud/spring-cloud-context/2.1.0.M1/spring-cloud-context-2.1.0.M1.jar:/root/.m2/repository/org/springframework/security/spring-security-crypto/5.2.0.M2/spring-security-crypto-5.2.0.M2.jar:/root/.m2/repository/org/springframework/cloud/spring-cloud-commons/2.1.0.M1/spring-cloud-commons-2.1.0.M1.jar:/root/.m2/repository/org/springframework/security/spring-security-rsa/1.0.7.RELEASE/spring-security-rsa-1.0.7.RELEASE.jar:/root/.m2/repository/org/bouncycastle/bcpkix-jdk15on/1.60/bcpkix-jdk15on-1.60.jar:/root/.m2/repository/org/bouncycastle/bcprov-jdk15on/1.60/bcprov-jdk15on-1.60.jar:/root/.m2/repository/org/springframework/cloud/spring-cloud-netflix-eureka-server/2.1.0.M1/spring-cloud-netflix-eureka-server-2.1.0.M1.jar:/root/.m2/repository/org/springframework/boot/spring-boot-starter-web/2.2.0.M2/spring-boot-starter-web-2.2.0.M2.jar:/root/.m2/repository/org/springframework/boot/spring-boot-starter-json/2.2.0.M2/spring-boot-starter-json-2.2.0.M2.jar:/root/.m2/repository/com/fasterxml/jackson/datatype/jackson-datatype-jdk8/2.9.8/jackson-datatype-jdk8-2.9.8.jar:/root/.m2/repository/com/fasterxml/jackson/module/jackson-module-parameter-names/2.9.8/jackson-module-parameter-names-2.9.8.jar:/root/.m2/repository/org/springframework/boot/spring-boot-starter-tomcat/2.2.0.M2/spring-boot-starter-tomcat-2.2.0.M2.jar:/root/.m2/repository/org/apache/tomcat/embed/tomcat-embed-core/9.0.17/tomcat-embed-core-9.0.17.jar:/root/.m2/repository/org/apache/tomcat/embed/tomcat-embed-el/9.0.17/tomcat-embed-el-9.0.17.jar:/root/.m2/repository/org/apache/tomcat/embed/tomcat-embed-websocket/9.0.17/tomcat-embed-websocket-9.0.17.jar:/root/.m2/repository/org/springframework/boot/spring-boot-starter-validation/2.2.0.M2/spring-boot-starter-validation-2.2.0.M2.jar:/root/.m2/repository/jakarta/validation/jakarta.validation-api/2.0.1/jakarta.validation-api-2.0.1.jar:/root/.m2/repository/org/hibernate/validator/hibernate-validator/6.0.16.Final/hibernate-validator-6.0.16.Final.jar:/root/.m2/repository/org/jboss/logging/jboss-logging/3.3.2.Final/jboss-logging-3.3.2.Final.jar:/root/.m2/repository/com/fasterxml/classmate/1.5.0/classmate-1.5.0.jar:/root/.m2/repository/org/springframework/spring-webmvc/5.2.0.M1/spring-webmvc-5.2.0.M1.jar:/root/.m2/repository/org/springframework/boot/spring-boot-starter-freemarker/2.2.0.M2/spring-boot-starter-freemarker-2.2.0.M2.jar:/root/.m2/repository/org/freemarker/freemarker/2.3.28/freemarker-2.3.28.jar:/root/.m2/repository/org/springframework/spring-context-support/5.2.0.M1/spring-context-support-5.2.0.M1.jar:/root/.m2/repository/org/springframework/cloud/spring-cloud-netflix-core/2.1.0.M1/spring-cloud-netflix-core-2.1.0.M1.jar:/root/.m2/repository/org/springframework/cloud/spring-cloud-netflix-eureka-client/2.1.0.M1/spring-cloud-netflix-eureka-client-2.1.0.M1.jar:/root/.m2/repository/com/netflix/eureka/eureka-client/1.9.3/eureka-client-1.9.3.jar:/root/.m2/repository/org/codehaus/jettison/jettison/1.3.7/jettison-1.3.7.jar:/root/.m2/repository/stax/stax-api/1.0.1/stax-api-1.0.1.jar:/root/.m2/repository/com/netflix/netflix-commons/netflix-eventbus/0.3.0/netflix-eventbus-0.3.0.jar:/root/.m2/repository/com/netflix/netflix-commons/netflix-infix/0.3.0/netflix-infix-0.3.0.jar:/root/.m2/repository/commons-jxpath/commons-jxpath/1.3/commons-jxpath-1.3.jar:/root/.m2/repository/joda-time/joda-time/2.10.1/joda-time-2.10.1.jar:/root/.m2/repository/org/antlr/antlr-runtime/3.4/antlr-runtime-3.4.jar:/root/.m2/repository/org/antlr/stringtemplate/3.2.1/stringtemplate-3.2.1.jar:/root/.m2/repository/antlr/antlr/2.7.7/antlr-2.7.7.jar:/root/.m2/repository/com/google/code/gson/gson/2.8.5/gson-2.8.5.jar:/root/.m2/repository/org/apache/commons/commons-math/2.2/commons-math-2.2.jar:/root/.m2/repository/javax/ws/rs/jsr311-api/1.1.1/jsr311-api-1.1.1.jar:/root/.m2/repository/com/netflix/servo/servo-core/0.12.21/servo-core-0.12.21.jar:/root/.m2/repository/com/sun/jersey/jersey-core/1.19.1/jersey-core-1.19.1.jar:/root/.m2/repository/com/sun/jersey/jersey-client/1.19.1/jersey-client-1.19.1.jar:/root/.m2/repository/com/sun/jersey/contribs/jersey-apache-client4/1.19.1/jersey-apache-client4-1.19.1.jar:/root/.m2/repository/org/apache/httpcomponents/httpclient/4.5.8/httpclient-4.5.8.jar:/root/.m2/repository/org/apache/httpcomponents/httpcore/4.4.11/httpcore-4.4.11.jar:/root/.m2/repository/commons-codec/commons-codec/1.12/commons-codec-1.12.jar:/root/.m2/repository/com/google/inject/guice/4.1.0/guice-4.1.0.jar:/root/.m2/repository/com/github/vlsi/compactmap/compactmap/1.2.1/compactmap-1.2.1.jar:/root/.m2/repository/com/github/andrewoma/dexx/dexx-collections/0.2/dexx-collections-0.2.jar:/root/.m2/repository/com/fasterxml/jackson/core/jackson-annotations/2.9.0/jackson-annotations-2.9.0.jar:/root/.m2/repository/com/fasterxml/jackson/core/jackson-core/2.9.8/jackson-core-2.9.8.jar:/root/.m2/repository/com/sun/jersey/jersey-servlet/1.19.1/jersey-servlet-1.19.1.jar:/root/.m2/repository/com/sun/jersey/jersey-server/1.19.1/jersey-server-1.19.1.jar:/root/.m2/repository/com/netflix/eureka/eureka-core/1.9.3/eureka-core-1.9.3.jar:/root/.m2/repository/org/codehaus/woodstox/woodstox-core-asl/4.4.1/woodstox-core-asl-4.4.1.jar:/root/.m2/repository/javax/xml/stream/stax-api/1.0-2/stax-api-1.0-2.jar:/root/.m2/repository/com/netflix/archaius/archaius-core/0.7.6/archaius-core-0.7.6.jar:/root/.m2/repository/com/google/code/findbugs/jsr305/3.0.1/jsr305-3.0.1.jar:/root/.m2/repository/com/google/guava/guava/16.0/guava-16.0.jar:/root/.m2/repository/javax/inject/javax.inject/1/javax.inject-1.jar:/root/.m2/repository/com/fasterxml/jackson/dataformat/jackson-dataformat-xml/2.9.8/jackson-dataformat-xml-2.9.8.jar:/root/.m2/repository/com/fasterxml/jackson/module/jackson-module-jaxb-annotations/2.9.8/jackson-module-jaxb-annotations-2.9.8.jar:/root/.m2/repository/org/codehaus/woodstox/stax2-api/3.1.4/stax2-api-3.1.4.jar:/root/.m2/repository/com/fasterxml/woodstox/woodstox-core/5.0.3/woodstox-core-5.0.3.jar:/root/.m2/repository/com/thoughtworks/xstream/xstream/1.4.10/xstream-1.4.10.jar:/root/.m2/repository/xmlpull/xmlpull/1.1.3.1/xmlpull-1.1.3.1.jar:/root/.m2/repository/xpp3/xpp3_min/1.1.4c/xpp3_min-1.1.4c.jar:/root/.m2/repository/org/springframework/cloud/spring-cloud-starter-netflix-archaius/2.1.0.M1/spring-cloud-starter-netflix-archaius-2.1.0.M1.jar:/root/.m2/repository/org/springframework/cloud/spring-cloud-netflix-ribbon/2.1.0.M1/spring-cloud-netflix-ribbon-2.1.0.M1.jar:/root/.m2/repository/org/springframework/cloud/spring-cloud-netflix-archaius/2.1.0.M1/spring-cloud-netflix-archaius-2.1.0.M1.jar:/root/.m2/repository/commons-configuration/commons-configuration/1.8/commons-configuration-1.8.jar:/root/.m2/repository/commons-lang/commons-lang/2.6/commons-lang-2.6.jar:/root/.m2/repository/org/springframework/cloud/spring-cloud-starter-netflix-ribbon/2.1.0.M1/spring-cloud-starter-netflix-ribbon-2.1.0.M1.jar:/root/.m2/repository/com/netflix/ribbon/ribbon/2.2.5/ribbon-2.2.5.jar:/root/.m2/repository/com/netflix/ribbon/ribbon-transport/2.2.5/ribbon-transport-2.2.5.jar:/root/.m2/repository/io/reactivex/rxnetty-contexts/0.4.9/rxnetty-contexts-0.4.9.jar:/root/.m2/repository/io/reactivex/rxnetty-servo/0.4.9/rxnetty-servo-0.4.9.jar:/root/.m2/repository/com/netflix/hystrix/hystrix-core/1.5.12/hystrix-core-1.5.12.jar:/root/.m2/repository/io/reactivex/rxnetty/0.4.9/rxnetty-0.4.9.jar:/root/.m2/repository/io/netty/netty-codec-http/4.1.34.Final/netty-codec-http-4.1.34.Final.jar:/root/.m2/repository/io/netty/netty-common/4.1.34.Final/netty-common-4.1.34.Final.jar:/root/.m2/repository/io/netty/netty-buffer/4.1.34.Final/netty-buffer-4.1.34.Final.jar:/root/.m2/repository/io/netty/netty-transport/4.1.34.Final/netty-transport-4.1.34.Final.jar:/root/.m2/repository/io/netty/netty-resolver/4.1.34.Final/netty-resolver-4.1.34.Final.jar:/root/.m2/repository/io/netty/netty-codec/4.1.34.Final/netty-codec-4.1.34.Final.jar:/root/.m2/repository/io/netty/netty-handler/4.1.34.Final/netty-handler-4.1.34.Final.jar:/root/.m2/repository/io/netty/netty-transport-native-epoll/4.1.34.Final/netty-transport-native-epoll-4.1.34.Final.jar:/root/.m2/repository/io/netty/netty-transport-native-unix-common/4.1.34.Final/netty-transport-native-unix-common-4.1.34.Final.jar:/root/.m2/repository/com/netflix/ribbon/ribbon-core/2.2.5/ribbon-core-2.2.5.jar:/root/.m2/repository/com/netflix/ribbon/ribbon-httpclient/2.2.5/ribbon-httpclient-2.2.5.jar:/root/.m2/repository/commons-collections/commons-collections/3.2.2/commons-collections-3.2.2.jar:/root/.m2/repository/com/netflix/netflix-commons/netflix-commons-util/0.3.0/netflix-commons-util-0.3.0.jar:/root/.m2/repository/com/netflix/ribbon/ribbon-loadbalancer/2.2.5/ribbon-loadbalancer-2.2.5.jar:/root/.m2/repository/com/netflix/netflix-commons/netflix-statistics/0.1.1/netflix-statistics-0.1.1.jar:/root/.m2/repository/io/reactivex/rxjava/1.3.8/rxjava-1.3.8.jar:/root/.m2/repository/com/netflix/ribbon/ribbon-eureka/2.2.5/ribbon-eureka-2.2.5.jar:/root/.m2/repository/org/slf4j/slf4j-api/1.7.26/slf4j-api-1.7.26.jar:/root/.m2/repository/org/springframework/boot/spring-boot-starter-test/2.2.0.M2/spring-boot-starter-test-2.2.0.M2.jar:/root/.m2/repository/org/springframework/boot/spring-boot-starter/2.2.0.M2/spring-boot-starter-2.2.0.M2.jar:/root/.m2/repository/org/springframework/boot/spring-boot/2.2.0.M2/spring-boot-2.2.0.M2.jar:/root/.m2/repository/org/springframework/boot/spring-boot-autoconfigure/2.2.0.M2/spring-boot-autoconfigure-2.2.0.M2.jar:/root/.m2/repository/org/springframework/boot/spring-boot-starter-logging/2.2.0.M2/spring-boot-starter-logging-2.2.0.M2.jar:/root/.m2/repository/ch/qos/logback/logback-classic/1.2.3/logback-classic-1.2.3.jar:/root/.m2/repository/ch/qos/logback/logback-core/1.2.3/logback-core-1.2.3.jar:/root/.m2/repository/org/apache/logging/log4j/log4j-to-slf4j/2.11.2/log4j-to-slf4j-2.11.2.jar:/root/.m2/repository/org/apache/logging/log4j/log4j-api/2.11.2/log4j-api-2.11.2.jar:/root/.m2/repository/org/slf4j/jul-to-slf4j/1.7.26/jul-to-slf4j-1.7.26.jar:/root/.m2/repository/jakarta/annotation/jakarta.annotation-api/1.3.4/jakarta.annotation-api-1.3.4.jar:/root/.m2/repository/org/yaml/snakeyaml/1.24/snakeyaml-1.24.jar:/root/.m2/repository/org/springframework/boot/spring-boot-test/2.2.0.M2/spring-boot-test-2.2.0.M2.jar:/root/.m2/repository/org/springframework/boot/spring-boot-test-autoconfigure/2.2.0.M2/spring-boot-test-autoconfigure-2.2.0.M2.jar:/root/.m2/repository/com/jayway/jsonpath/json-path/2.4.0/json-path-2.4.0.jar:/root/.m2/repository/net/minidev/json-smart/2.3/json-smart-2.3.jar:/root/.m2/repository/net/minidev/accessors-smart/1.2/accessors-smart-1.2.jar:/root/.m2/repository/org/ow2/asm/asm/5.0.4/asm-5.0.4.jar:/root/.m2/repository/jakarta/xml/bind/jakarta.xml.bind-api/2.3.2/jakarta.xml.bind-api-2.3.2.jar:/root/.m2/repository/jakarta/activation/jakarta.activation-api/1.2.1/jakarta.activation-api-1.2.1.jar:/root/.m2/repository/org/assertj/assertj-core/3.12.2/assertj-core-3.12.2.jar:/root/.m2/repository/org/hamcrest/hamcrest-core/1.3/hamcrest-core-1.3.jar:/root/.m2/repository/org/hamcrest/hamcrest-library/1.3/hamcrest-library-1.3.jar:/root/.m2/repository/org/skyscreamer/jsonassert/1.5.0/jsonassert-1.5.0.jar:/root/.m2/repository/com/vaadin/external/google/android-json/0.0.20131108.vaadin1/android-json-0.0.20131108.vaadin1.jar:/root/.m2/repository/org/springframework/spring-core/5.2.0.M1/spring-core-5.2.0.M1.jar:/root/.m2/repository/org/springframework/spring-jcl/5.2.0.M1/spring-jcl-5.2.0.M1.jar:/root/.m2/repository/org/springframework/spring-test/5.2.0.M1/spring-test-5.2.0.M1.jar:/root/.m2/repository/org/xmlunit/xmlunit-core/2.6.2/xmlunit-core-2.6.2.jar:/root/.m2/repository/org/springframework/boot/spring-boot-starter-actuator/2.2.0.M2/spring-boot-starter-actuator-2.2.0.M2.jar:/root/.m2/repository/org/springframework/boot/spring-boot-actuator-autoconfigure/2.2.0.M2/spring-boot-actuator-autoconfigure-2.2.0.M2.jar:/root/.m2/repository/org/springframework/boot/spring-boot-actuator/2.2.0.M2/spring-boot-actuator-2.2.0.M2.jar:/root/.m2/repository/com/fasterxml/jackson/core/jackson-databind/2.9.8/jackson-databind-2.9.8.jar:/root/.m2/repository/org/springframework/spring-context/5.2.0.M1/spring-context-5.2.0.M1.jar:/root/.m2/repository/com/fasterxml/jackson/datatype/jackson-datatype-jsr310/2.9.8/jackson-datatype-jsr310-2.9.8.jar:/root/.m2/repository/io/micrometer/micrometer-core/1.1.4/micrometer-core-1.1.4.jar:/root/.m2/repository/org/hdrhistogram/HdrHistogram/2.1.9/HdrHistogram-2.1.9.jar:/root/.m2/repository/org/latencyutils/LatencyUtils/2.0.3/LatencyUtils-2.0.3.jar:/root/.m2/repository/org/springframework/cloud/spring-cloud-starter-zipkin/2.1.0.M1/spring-cloud-starter-zipkin-2.1.0.M1.jar:/root/.m2/repository/org/springframework/cloud/spring-cloud-sleuth-zipkin/2.1.0.M1/spring-cloud-sleuth-zipkin-2.1.0.M1.jar:/root/.m2/repository/org/springframework/spring-web/5.2.0.M1/spring-web-5.2.0.M1.jar:/root/.m2/repository/io/zipkin/zipkin2/zipkin/2.11.5/zipkin-2.11.5.jar:/root/.m2/repository/io/zipkin/reporter2/zipkin-reporter/2.7.8/zipkin-reporter-2.7.8.jar:/root/.m2/repository/io/zipkin/reporter2/zipkin-sender-kafka11/2.7.8/zipkin-sender-kafka11-2.7.8.jar:/root/.m2/repository/io/zipkin/reporter2/zipkin-sender-amqp-client/2.7.8/zipkin-sender-amqp-client-2.7.8.jar:/root/.m2/repository/org/springframework/cloud/spring-cloud-starter-sleuth/2.1.0.M1/spring-cloud-starter-sleuth-2.1.0.M1.jar:/root/.m2/repository/org/springframework/boot/spring-boot-starter-aop/2.2.0.M2/spring-boot-starter-aop-2.2.0.M2.jar:/root/.m2/repository/org/aspectj/aspectjweaver/1.9.3/aspectjweaver-1.9.3.jar:/root/.m2/repository/org/springframework/cloud/spring-cloud-sleuth-core/2.1.0.M1/spring-cloud-sleuth-core-2.1.0.M1.jar:/root/.m2/repository/org/aspectj/aspectjrt/1.9.3/aspectjrt-1.9.3.jar:/root/.m2/repository/io/zipkin/brave/brave-instrumentation-spring-web/5.3.3/brave-instrumentation-spring-web-5.3.3.jar:/root/.m2/repository/io/zipkin/brave/brave-instrumentation-http/5.3.3/brave-instrumentation-http-5.3.3.jar:/root/.m2/repository/io/zipkin/brave/brave-instrumentation-spring-rabbit/5.3.3/brave-instrumentation-spring-rabbit-5.3.3.jar:/root/.m2/repository/io/zipkin/brave/brave-instrumentation-kafka-clients/5.3.3/brave-instrumentation-kafka-clients-5.3.3.jar:/root/.m2/repository/io/zipkin/brave/brave-instrumentation-httpclient/5.3.3/brave-instrumentation-httpclient-5.3.3.jar:/root/.m2/repository/io/zipkin/brave/brave-instrumentation-httpasyncclient/5.3.3/brave-instrumentation-httpasyncclient-5.3.3.jar:/root/.m2/repository/io/zipkin/brave/brave-instrumentation-spring-webmvc/5.3.3/brave-instrumentation-spring-webmvc-5.3.3.jar:/root/.m2/repository/io/zipkin/brave/brave-instrumentation-servlet/5.3.3/brave-instrumentation-servlet-5.3.3.jar:/root/.m2/repository/io/zipkin/brave/brave-instrumentation-jms/5.3.3/brave-instrumentation-jms-5.3.3.jar:/root/.m2/repository/io/zipkin/brave/brave-context-log4j2/5.6.5/brave-context-log4j2-5.6.5.jar:/root/.m2/repository/io/zipkin/brave/brave/5.6.5/brave-5.6.5.jar:/root/.m2/repository/org/springframework/boot/spring-boot-starter-security/2.2.0.M2/spring-boot-starter-security-2.2.0.M2.jar:/root/.m2/repository/org/springframework/spring-aop/5.2.0.M1/spring-aop-5.2.0.M1.jar:/root/.m2/repository/org/springframework/spring-beans/5.2.0.M1/spring-beans-5.2.0.M1.jar:/root/.m2/repository/org/springframework/security/spring-security-config/5.2.0.M2/spring-security-config-5.2.0.M2.jar:/root/.m2/repository/org/springframework/security/spring-security-core/5.2.0.M2/spring-security-core-5.2.0.M2.jar:/root/.m2/repository/org/springframework/security/spring-security-web/5.2.0.M2/spring-security-web-5.2.0.M2.jar:/root/.m2/repository/org/springframework/spring-expression/5.2.0.M1/spring-expression-5.2.0.M1.jar:/root/.m2/repository/junit/junit/4.12/junit-4.12.jar:/root/.m2/repository/org/mockito/mockito-all/1.10.19/mockito-all-1.10.19.jar:/root/.m2/repository/org/mockito/mockito-core/2.25.1/mockito-core-2.25.1.jar:/root/.m2/repository/net/bytebuddy/byte-buddy/1.9.12/byte-buddy-1.9.12.jar:/root/.m2/repository/net/bytebuddy/byte-buddy-agent/1.9.12/byte-buddy-agent-1.9.12.jar:/root/.m2/repository/org/objenesis/objenesis/2.6/objenesis-2.6.jar:/root/.m2/repository/org/powermock/powermock-module-junit4/1.7.4/powermock-module-junit4-1.7.4.jar:/root/.m2/repository/org/powermock/powermock-module-junit4-common/1.7.4/powermock-module-junit4-common-1.7.4.jar:/root/.m2/repository/org/powermock/powermock-reflect/1.7.4/powermock-reflect-1.7.4.jar:/root/.m2/repository/org/powermock/powermock-core/1.7.4/powermock-core-1.7.4.jar:/root/.m2/repository/org/javassist/javassist/3.21.0-GA/javassist-3.21.0-GA.jar:/root/.m2/repository/org/powermock/powermock-api-mockito/1.7.4/powermock-api-mockito-1.7.4.jar:/root/.m2/repository/org/powermock/powermock-api-mockito-common/1.7.4/powermock-api-mockito-common-1.7.4.jar:/root/.m2/repository/org/powermock/powermock-api-support/1.7.4/powermock-api-support-1.7.4.jar:/root/.m2/repository/org/springframework/boot/spring-boot-maven-plugin/2.2.0.M2/spring-boot-maven-plugin-2.2.0.M2.jar:/root/.m2/repository/org/springframework/boot/spring-boot-loader-tools/2.2.0.M2/spring-boot-loader-tools-2.2.0.M2.jar:/root/.m2/repository/org/apache/commons/commons-compress/1.18/commons-compress-1.18.jar:/root/.m2/repository/org/apache/maven/maven-archiver/3.2.0/maven-archiver-3.2.0.jar:/root/.m2/repository/org/apache/maven/shared/maven-shared-utils/3.2.0/maven-shared-utils-3.2.0.jar:/root/.m2/repository/commons-io/commons-io/2.5/commons-io-2.5.jar:/root/.m2/repository/org/codehaus/plexus/plexus-interpolation/1.22/plexus-interpolation-1.22.jar:/root/.m2/repository/org/apache/maven/maven-artifact/3.3.9/maven-artifact-3.3.9.jar:/root/.m2/repository/org/apache/commons/commons-lang3/3.8.1/commons-lang3-3.8.1.jar:/root/.m2/repository/org/apache/maven/maven-core/3.3.9/maven-core-3.3.9.jar:/root/.m2/repository/org/apache/maven/maven-settings-builder/3.2.1/maven-settings-builder-3.2.1.jar:/root/.m2/repository/org/apache/maven/maven-repository-metadata/3.3.9/maven-repository-metadata-3.3.9.jar:/root/.m2/repository/org/apache/maven/maven-model-builder/3.3.9/maven-model-builder-3.3.9.jar:/root/.m2/repository/org/apache/maven/maven-builder-support/3.3.9/maven-builder-support-3.3.9.jar:/root/.m2/repository/org/apache/maven/maven-aether-provider/3.2.1/maven-aether-provider-3.2.1.jar:/root/.m2/repository/org/eclipse/aether/aether-spi/0.9.0.M2/aether-spi-0.9.0.M2.jar:/root/.m2/repository/org/eclipse/aether/aether-impl/1.0.2.v20150114/aether-impl-1.0.2.v20150114.jar:/root/.m2/repository/org/eclipse/aether/aether-api/1.0.2.v20150114/aether-api-1.0.2.v20150114.jar:/root/.m2/repository/org/eclipse/aether/aether-util/1.0.2.v20150114/aether-util-1.0.2.v20150114.jar:/root/.m2/repository/org/eclipse/sisu/org.eclipse.sisu.plexus/0.3.2/org.eclipse.sisu.plexus-0.3.2.jar:/root/.m2/repository/org/eclipse/sisu/org.eclipse.sisu.inject/0.3.2/org.eclipse.sisu.inject-0.3.2.jar:/root/.m2/repository/com/google/inject/guice/4.0/guice-4.0-no_aop.jar:/root/.m2/repository/aopalliance/aopalliance/1.0/aopalliance-1.0.jar:/root/.m2/repository/org/codehaus/plexus/plexus-classworlds/2.5.2/plexus-classworlds-2.5.2.jar:/root/.m2/repository/org/codehaus/plexus/plexus-component-annotations/1.6/plexus-component-annotations-1.6.jar:/root/.m2/repository/org/sonatype/plexus/plexus-sec-dispatcher/1.3/plexus-sec-dispatcher-1.3.jar:/root/.m2/repository/org/sonatype/plexus/plexus-cipher/1.4/plexus-cipher-1.4.jar:/root/.m2/repository/org/apache/maven/maven-model/3.3.9/maven-model-3.3.9.jar:/root/.m2/repository/org/apache/maven/maven-plugin-api/3.3.9/maven-plugin-api-3.3.9.jar:/root/.m2/repository/org/apache/maven/maven-settings/3.3.9/maven-settings-3.3.9.jar:/root/.m2/repository/org/apache/maven/shared/maven-common-artifact-filters/3.0.1/maven-common-artifact-filters-3.0.1.jar:/root/.m2/repository/org/sonatype/sisu/sisu-inject-plexus/1.4.2/sisu-inject-plexus-1.4.2.jar:/root/.m2/repository/org/sonatype/sisu/sisu-inject-bean/1.4.2/sisu-inject-bean-1.4.2.jar:/root/.m2/repository/org/sonatype/sisu/sisu-guice/2.1.7/sisu-guice-2.1.7-noaop.jar:/root/.m2/repository/org/codehaus/plexus/plexus-archiver/3.6.0/plexus-archiver-3.6.0.jar:/root/.m2/repository/org/codehaus/plexus/plexus-io/3.0.1/plexus-io-3.0.1.jar:/root/.m2/repository/org/iq80/snappy/snappy/0.4/snappy-0.4.jar:/root/.m2/repository/org/tukaani/xz/1.8/xz-1.8.jar:/root/.m2/repository/org/codehaus/plexus/plexus-utils/3.1.0/plexus-utils-3.1.0.jar:/root/.m2/repository/org/sonatype/plexus/plexus-build-api/0.0.7/plexus-build-api-0.0.7.jar:"/>
    <property name="sun.cpu.endian" value="little"/>
    <property name="user.home" value="/root"/>
    <property name="user.language" value="en"/>
    <property name="java.specification.vendor" value="Oracle Corporation"/>
    <property name="java.home" value="/usr/lib/jvm/java-1.8.0-openjdk-1.8.0.201.b09-2.el8.x86_64/jre"/>
    <property name="basedir" value="/root/johnson-eureka"/>
    <property name="file.separator" value="/"/>
    <property name="line.separator" value="&#10;"/>
    <property name="java.vm.specification.vendor" value="Oracle Corporation"/>
    <property name="java.specification.name" value="Java Platform API Specification"/>
    <property name="java.awt.graphicsenv" value="sun.awt.X11GraphicsEnvironment"/>
    <property name="surefire.real.class.path" value="/root/johnson-eureka/target/surefire/surefirebooter6212630920149783778.jar:/root/.m2/repository/org/jacoco/org.jacoco.agent/0.8.1/org.jacoco.agent-0.8.1-runtime.jar"/>
    <property name="sun.boot.class.path" value="/usr/lib/jvm/java-1.8.0-openjdk-1.8.0.201.b09-2.el8.x86_64/jre/lib/resources.jar:/usr/lib/jvm/java-1.8.0-openjdk-1.8.0.201.b09-2.el8.x86_64/jre/lib/rt.jar:/usr/lib/jvm/java-1.8.0-openjdk-1.8.0.201.b09-2.el8.x86_64/jre/lib/sunrsasign.jar:/usr/lib/jvm/java-1.8.0-openjdk-1.8.0.201.b09-2.el8.x86_64/jre/lib/jsse.jar:/usr/lib/jvm/java-1.8.0-openjdk-1.8.0.201.b09-2.el8.x86_64/jre/lib/jce.jar:/usr/lib/jvm/java-1.8.0-openjdk-1.8.0.201.b09-2.el8.x86_64/jre/lib/charsets.jar:/usr/lib/jvm/java-1.8.0-openjdk-1.8.0.201.b09-2.el8.x86_64/jre/lib/jfr.jar:/usr/lib/jvm/java-1.8.0-openjdk-1.8.0.201.b09-2.el8.x86_64/jre/classes"/>
    <property name="sun.management.compiler" value="HotSpot 64-Bit Tiered Compilers"/>
    <property name="java.runtime.version" value="1.8.0_201-b09"/>
    <property name="user.name" value="root"/>
    <property name="path.separator" value=":"/>
    <property name="os.version" value="4.18.0-80.el8.x86_64"/>
    <property name="java.endorsed.dirs" value="/usr/lib/jvm/java-1.8.0-openjdk-1.8.0.201.b09-2.el8.x86_64/jre/lib/endorsed"/>
    <property name="java.runtime.name" value="OpenJDK Runtime Environment"/>
    <property name="file.encoding" value="UTF-8"/>
    <property name="java.vm.name" value="OpenJDK 64-Bit Server VM"/>
    <property name="localRepository" value="/root/.m2/repository"/>
    <property name="java.vendor.url.bug" value="http://bugreport.sun.com/bugreport/"/>
    <property name="java.io.tmpdir" value="/tmp"/>
    <property name="java.version" value="1.8.0_201"/>
    <property name="user.dir" value="/root/johnson-eureka"/>
    <property name="os.arch" value="amd64"/>
    <property name="java.vm.specification.name" value="Java Virtual Machine Specification"/>
    <property name="java.awt.printerjob" value="sun.print.PSPrinterJob"/>
    <property name="sun.os.patch.level" value="unknown"/>
    <property name="java.library.path" value="/usr/java/packages/lib/amd64:/usr/lib64:/lib64:/lib:/usr/lib"/>
    <property name="java.vm.info" value="mixed mode"/>
    <property name="java.vendor" value="Oracle Corporation"/>
    <property name="java.vm.version" value="25.201-b09"/>
    <property name="java.ext.dirs" value="/usr/lib/jvm/java-1.8.0-openjdk-1.8.0.201.b09-2.el8.x86_64/jre/lib/ext:/usr/java/packages/lib/ext"/>
    <property name="sun.io.unicode.encoding" value="UnicodeLittle"/>
    <property name="java.class.version" value="52.0"/>
  </properties>
  <testcase name="testDoFilter_disableIpFilter" classname="com.baml.eops.csw_eureka_server.security.CustomIpFilterTest" time="3.989"/>
  <testcase name="testDoFilter_urlExcluded" classname="com.baml.eops.csw_eureka_server.security.CustomIpFilterTest" time="0.206"/>
  <testcase name="testDoFilter_auth" classname="com.baml.eops.csw_eureka_server.security.CustomIpFilterTest" time="0.122"/>
</testsuite>